%YAML 1.1
%TAG !u! tag:unity3d.com,2011:
--- !u!74 &7400000
AnimationClip:
  m_ObjectHideFlags: 0
  m_CorrespondingSourceObject: {fileID: 0}
  m_PrefabInstance: {fileID: 0}
  m_PrefabAsset: {fileID: 0}
  m_Name: player
  serializedVersion: 6
  m_Legacy: 0
  m_Compressed: 0
  m_UseHighQualityCurve: 1
  m_RotationCurves: []
  m_CompressedRotationCurves: []
  m_EulerCurves: []
  m_PositionCurves: []
  m_ScaleCurves: []
  m_FloatCurves: []
  m_PPtrCurves:
  - curve:
    - time: 0
      value: {fileID: 1474768816, guid: 14861863ec58e0048a5b23dd1d72b87b, type: 3}
    - time: 0.1
      value: {fileID: -286104122, guid: 14861863ec58e0048a5b23dd1d72b87b, type: 3}
    - time: 0.2
      value: {fileID: 938863055, guid: 14861863ec58e0048a5b23dd1d72b87b, type: 3}
    - time: 0.38333333
      value: {fileID: -1144294524, guid: 14861863ec58e0048a5b23dd1d72b87b, type: 3}
    - time: 0.48333332
      value: {fileID: 1524735972, guid: 14861863ec58e0048a5b23dd1d72b87b, type: 3}
    - time: 0.68333334
      value: {fileID: 1869229271, guid: 14861863ec58e0048a5b23dd1d72b87b, type: 3}
    - time: 0.8
      value: {fileID: 1869229271, guid: 14861863ec58e0048a5b23dd1d72b87b, type: 3}
    attribute: m_Sprite
    path: 
    classID: 212
    script: {fileID: 0}
  m_SampleRate: 60
  m_WrapMode: 0
  m_Bounds:
    m_Center: {x: 0, y: 0, z: 0}
    m_Extent: {x: 0, y: 0, z: 0}
  m_ClipBindingConstant:
    genericBindings:
    - serializedVersion: 2
      path: 0
      attribute: 0
      script: {fileID: 0}
      typeID: 212
      customType: 23
      isPPtrCurve: 1
    pptrCurveMapping:
    - {fileID: 1474768816, guid: 14861863ec58e0048a5b23dd1d72b87b, type: 3}
    - {fileID: -286104122, guid: 14861863ec58e0048a5b23dd1d72b87b, type: 3}
    - {fileID: 938863055, guid: 14861863ec58e0048a5b23dd1d72b87b, type: 3}
    - {fileID: -1144294524, guid: 14861863ec58e0048a5b23dd1d72b87b, type: 3}
    - {fileID: 1524735972, guid: 14861863ec58e0048a5b23dd1d72b87b, type: 3}
    - {fileID: 1869229271, guid: 14861863ec58e0048a5b23dd1d72b87b, type: 3}
    - {fileID: 1869229271, guid: 14861863ec58e0048a5b23dd1d72b87b, type: 3}
  m_AnimationClipSettings:
    serializedVersion: 2
    m_AdditiveReferencePoseClip: {fileID: 0}
    m_AdditiveReferencePoseTime: 0
    m_StartTime: 0
    m_StopTime: 0.81666666
    m_OrientationOffsetY: 0
    m_Level: 0
    m_CycleOffset: 0
    m_HasAdditiveReferencePose: 0
    m_LoopTime: 1
    m_LoopBlend: 0
    m_LoopBlendOrientation: 0
    m_LoopBlendPositionY: 0
    m_LoopBlendPositionXZ: 0
    m_KeepOriginalOrientation: 0
    m_KeepOriginalPositionY: 1
    m_KeepOriginalPositionXZ: 0
    m_HeightFromFeet: 0
    m_Mirror: 0
  m_EditorCurves: []
  m_EulerEditorCurves: []
  m_HasGenericRootTransform: 0
  m_HasMotionFloatCurves: 0
  m_Events: []
